{
  "migIndex": 1,
  "data": [
    {
      "path": "src/assets/fonts/OpenSans-Light.ttf",
      "sha1": "bef371c2ba3ac8cc2ef276a65cc3be46414d1ffd"
    },
    {
      "path": "src/assets/fonts/OpenSans-Regular.ttf",
      "sha1": "b334209f43426374b709e42e3185dc46478a96ba"
    },
    {
      "path": "src/assets/fonts/OpenSans-SemiBold.ttf",
      "sha1": "45974cf9acbd1be118f2b426c7cfab33ee584e3c"
    },
    {
      "path": "src/assets/fonts/Quicksand-Bold.ttf",
      "sha1": "171c939980530054b184f11a16f4d8a16f4530b3"
    },
    {
      "path": "src/assets/fonts/Quicksand-Medium.ttf",
      "sha1": "a9e8a61db39bc1705da9724e7bff29eb4ea2f150"
    },
    {
      "path": "src/assets/fonts/Quicksand-Regular.ttf",
      "sha1": "e6e740cad5285410556e1dbfddabd325f57222f4"
    },
    {
      "path": "src/assets/fonts/Quicksand-SemiBold.ttf",
      "sha1": "42acaf8cf0b677cbb787ba75b4f8f3bb3ba72a0c"
    },
    {
      "path": "src/assets/fonts/Roboto-Light.ttf",
      "sha1": "51dbae4543aaa10096e344e48fcffe468bd314a9"
    },
    {
      "path": "src/assets/fonts/Roboto-Regular.ttf",
      "sha1": "84d102488738b0ebbc7a5087973effbd54c95bd5"
    },
    {
      "path": "src/assets/fonts/Roboto-Thin.ttf",
      "sha1": "e07c400b55ef4ac7fb5ff9a79d301712922c681b"
    },
    {
      "path": "src/assets/fonts/SFProText-Bold.ttf",
      "sha1": "632e6cea171b276e5dd1f13b152c702fbf562cee"
    },
    {
      "path": "src/assets/fonts/SFProText-Medium.ttf",
      "sha1": "3b8df618cd23e83843b16a8a32de1ddc9de44df4"
    },
    {
      "path": "src/assets/fonts/SFProText-Regular.ttf",
      "sha1": "b4893462f2289df6978f9462a63db9e64bcc9342"
    },
    {
      "path": "src/assets/fonts/SFProText-SemiBold.ttf",
      "sha1": "9560ae412d73c7c9af72333db50464b4e597b0f9"
    }
  ]
}
